{
	"info": {
		"_postman_id": "0bbad183-ae89-436e-84b1-f65e65cc37c5",
		"name": "platform-builders-challenge",
		"schema": "https://schema.getpostman.com/json/collection/v2.1.0/collection.json"
	},
	"item": [
		{
			"name": "Create Customer",
			"request": {
				"method": "POST",
				"header": [
					{
						"key": "Content-Type",
						"name": "Content-Type",
						"value": "application/json",
						"type": "text"
					}
				],
				"body": {
					"mode": "raw",
					"raw": "{\n\t\"name\": \"Bruno Cerqueira\",\n\t\"dateBirth\": \"1987-04-28\",\n\t\"cpf\": \"07207194455\"\n}",
					"options": {
						"raw": {
							"language": "json"
						}
					}
				},
				"url": {
					"raw": "http://localhost:8081/rest/customer",
					"protocol": "http",
					"host": [
						"localhost"
					],
					"port": "8081",
					"path": [
						"rest",
						"customer"
					]
				},
				"description": "Create Customer"
			},
			"response": []
		},
		{
			"name": "Find Customer",
			"request": {
				"method": "GET",
				"header": [],
				"url": {
					"raw": "http://localhost:8081/rest/customer/find/1",
					"protocol": "http",
					"host": [
						"localhost"
					],
					"port": "8081",
					"path": [
						"rest",
						"customer",
						"find",
						"1"
					]
				},
				"description": "Find Customer"
			},
			"response": []
		},
		{
			"name": "Delete Customer",
			"request": {
				"method": "DELETE",
				"header": [],
				"url": {
					"raw": "http://localhost:8081/rest/customer/2",
					"protocol": "http",
					"host": [
						"localhost"
					],
					"port": "8081",
					"path": [
						"rest",
						"customer",
						"2"
					]
				},
				"description": "Delete Customer"
			},
			"response": []
		},
		{
			"name": "Replace Customer",
			"request": {
				"method": "PUT",
				"header": [
					{
						"key": "Content-Type",
						"name": "Content-Type",
						"value": "application/json",
						"type": "text"
					}
				],
				"body": {
					"mode": "raw",
					"raw": "{\n\t\"name\": \"Bruno Roberto Cerqueira\",\n\t\"dateBirth\": \"1987-04-20\",\n\t\"cpf\": \"07207194444\"\n}",
					"options": {
						"raw": {
							"language": "json"
						}
					}
				},
				"url": {
					"raw": "http://localhost:8081/rest/customer/1",
					"protocol": "http",
					"host": [
						"localhost"
					],
					"port": "8081",
					"path": [
						"rest",
						"customer",
						"1"
					]
				},
				"description": "Replace Customer"
			},
			"response": []
		},
		{
			"name": "Partial Update Customer",
			"request": {
				"method": "PATCH",
				"header": [
					{
						"key": "Content-Type",
						"name": "Content-Type",
						"value": "application/json",
						"type": "text"
					}
				],
				"body": {
					"mode": "raw",
					"raw": "{\n\t\"cpf\": \"07207199999\"\n}",
					"options": {
						"raw": {
							"language": "json"
						}
					}
				},
				"url": {
					"raw": "http://localhost:8081/rest/customer/1",
					"protocol": "http",
					"host": [
						"localhost"
					],
					"port": "8081",
					"path": [
						"rest",
						"customer",
						"1"
					]
				},
				"description": "Partial Update Customer"
			},
			"response": []
		},
		{
			"name": "Search Customer",
			"request": {
				"method": "GET",
				"header": [],
				"url": {
					"raw": "http://localhost:8081/rest/customer?cpf=Bruno&index=1&limit=1",
					"protocol": "http",
					"host": [
						"localhost"
					],
					"port": "8081",
					"path": [
						"rest",
						"customer"
					],
					"query": [
						{
							"key": "name",
							"value": "Bruno"
						},
						{
							"key": "index",
							"value": "1"
						},
						{
							"key": "limit",
							"value": "1"
						}
					]
				},
				"description": "Search Customer"
			},
			"response": []
		}
	],
	"protocolProfileBehavior": {}
}